<svg width="30" height="33" viewBox="0 0 30 33" fill="none" xmlns="http://www.w3.org/2000/svg">
<path d="M15 11.5838C13.8065 11.5838 12.6619 12.0914 11.818 12.9948C10.9741 13.8982 10.5 15.1234 10.5 16.401C10.5 17.6786 10.9741 18.9039 11.818 19.8073C12.6619 20.7107 13.8065 21.2182 15 21.2182C16.1935 21.2182 17.3381 20.7107 18.182 19.8073C19.0259 18.9039 19.5 17.6786 19.5 16.401C19.5 15.1234 19.0259 13.8982 18.182 12.9948C17.3381 12.0914 16.1935 11.5838 15 11.5838ZM15 8.37238C16.9891 8.37238 18.8968 9.21825 20.3033 10.7239C21.7098 12.2296 22.5 14.2717 22.5 16.401C22.5 18.5303 21.7098 20.5725 20.3033 22.0781C18.8968 23.5838 16.9891 24.4296 15 24.4296C13.0109 24.4296 11.1032 23.5838 9.6967 22.0781C8.29018 20.5725 7.5 18.5303 7.5 16.401C7.5 14.2717 8.29018 12.2296 9.6967 10.7239C11.1032 9.21825 13.0109 8.37238 15 8.37238ZM24.75 7.97095C24.75 8.50328 24.5525 9.01381 24.2008 9.39023C23.8492 9.76664 23.3723 9.97811 22.875 9.97811C22.3777 9.97811 21.9008 9.76664 21.5492 9.39023C21.1975 9.01381 21 8.50328 21 7.97095C21 7.43862 21.1975 6.92809 21.5492 6.55168C21.9008 6.17526 22.3777 5.96379 22.875 5.96379C23.3723 5.96379 23.8492 6.17526 24.2008 6.55168C24.5525 6.92809 24.75 7.43862 24.75 7.97095ZM15 3.5552C11.289 3.5552 10.683 3.56644 8.9565 3.64834C7.7805 3.70775 6.9915 3.87635 6.2595 4.18144C5.64692 4.4222 5.09312 4.80809 4.6395 5.31026C4.17001 5.79583 3.80903 6.38864 3.5835 7.04445C3.2985 7.83125 3.141 8.67426 3.087 9.93154C3.009 11.7043 3 12.3241 3 16.401C3 20.3736 3.0105 21.0223 3.087 22.8705C3.1425 24.1278 3.3 24.974 3.5835 25.756C3.8385 26.4545 4.1385 26.9571 4.6365 27.4902C5.142 28.0297 5.6115 28.3524 6.2565 28.619C6.9975 28.9257 7.7865 29.0959 8.9565 29.1537C10.6125 29.2372 11.1915 29.2468 15 29.2468C18.711 29.2468 19.317 29.2356 21.0435 29.1537C22.2165 29.0943 23.007 28.9257 23.739 28.6222C24.3507 28.3802 24.9041 27.9951 25.359 27.495C25.8645 26.9539 26.166 26.4513 26.415 25.7608C26.7 24.9692 26.859 24.123 26.913 22.8705C26.991 21.0978 27 20.478 27 16.401C27 12.4284 26.9895 11.7797 26.913 9.93154C26.8575 8.67587 26.7 7.82804 26.415 7.04445C26.1889 6.38931 25.8286 5.79673 25.3605 5.31026C24.9071 4.80742 24.3533 4.42096 23.7405 4.17983C23.0055 3.87474 22.2165 3.70614 21.0435 3.64834C19.3875 3.56484 18.8085 3.5552 15 3.5552ZM15 0.34375C19.0755 0.34375 19.584 0.359807 21.183 0.440094C22.7805 0.52038 23.868 0.788536 24.825 1.18676C25.815 1.59461 26.649 2.14698 27.483 3.03816C28.2457 3.84086 28.8359 4.81183 29.2125 5.88351C29.583 6.90635 29.835 8.07211 29.91 9.78221C29.9805 11.4939 30 12.0383 30 16.401C30 20.7638 29.985 21.3081 29.91 23.0198C29.835 24.7299 29.583 25.8941 29.2125 26.9185C28.837 27.9908 28.2467 28.962 27.483 29.7639C26.7329 30.5801 25.826 31.2118 24.825 31.6153C23.8695 32.0119 22.7805 32.2817 21.183 32.3619C19.584 32.4374 19.0755 32.4583 15 32.4583C10.9245 32.4583 10.416 32.4422 8.817 32.3619C7.2195 32.2817 6.132 32.0119 5.175 31.6153C4.17349 31.213 3.26629 30.5811 2.517 29.7639C1.75411 28.9613 1.1639 27.9903 0.7875 26.9185C0.4155 25.8957 0.165 24.7299 0.0899999 23.0198C0.0194999 21.3081 0 20.7638 0 16.401C0 12.0383 0.0149999 11.4939 0.0899999 9.78221C0.165 8.07051 0.4155 6.90796 0.7875 5.88351C1.16285 4.81117 1.75321 3.83993 2.517 3.03816C3.26651 2.22122 4.17364 1.58936 5.175 1.18676C6.132 0.788536 7.218 0.52038 8.817 0.440094C10.416 0.364624 10.9245 0.34375 15 0.34375Z" fill="black"/>
</svg>
